[
  {
    "name": "Linux",
    "cloudProviderIdList": ["1", "2", "3"]
  },
  {
    "name": "Windows",
    "cloudProviderIdList": ["1", "2", "3"]
  },
  {
    "name": "NA",
    "cloudProviderIdList": ["2"]
  },
  {
    "name": "DEFAULT",
    "cloudProviderIdList": ["3"]
  }
]
